// Jest Snapshot v1, https://goo.gl/fbAQLP

exports[`<Search />  matches snapshot 1`] = `
<div id="search-container">
    <div id="left-input-container" class="search-container">
        <div class="v-input v-text-field v-select v-autocomplete theme--light">
            <div class="v-input__prepend-outer">
                <div class="v-input__icon v-input__icon--prepend">
                    <i aria-hidden="true" class="v-icon theme--light material-icons">search</i>
                </div>
            </div>
            <div class="v-input__control">
                <div class="v-input__slot">
                    <div class="v-menu v-menu--inline">
                        <div class="v-menu__activator">
                            <div class="v-select__slot">
                                <label for="input-primary" class="v-label theme--light" style="left: 0px; position: absolute;">I'm looking for ...</label>
                                <input id="input-primary" type="text" autocomplete="off" role="combobox">
                                <div class="v-input__append-inner">
                                    <div class="v-input__icon v-input__icon--append">
                                        <i aria-hidden="true" class="v-icon theme--light material-icons">arrow_drop_down</i>
                                    </div>
                                </div>
                            </div>
                        </div>
                    </div>
                </div>
                <div class="v-text-field__details">
                    <div class="v-messages theme--light">
                        <div class="v-messages__wrapper"></div>
                    </div>
                </div>
            </div>
        </div>
    </div>
    <div id="right-input-container" class="search-location-container">
        <div class="v-input v-text-field v-select v-autocomplete theme--light">
            <div class="v-input__prepend-outer">
                <div class="v-input__icon v-input__icon--prepend">
                    <i aria-hidden="true" class="v-icon theme--light material-icons">room</i>
                </div>
            </div>
            <div class="v-input__control">
                <div class="v-input__slot">
                    <div class="v-menu v-menu--inline">
                        <div class="v-menu__activator">
                            <div class="v-select__slot">
                                <label for="input-secondary" class="v-label theme--light" style="left: 0px; position: absolute;">Location</label>
                                <input id="input-secondary" type="text" autocomplete="off" role="combobox">
                                <div class="v-input__append-inner">
                                    <div class="v-input__icon v-input__icon--append">
                                        <i aria-hidden="true" class="v-icon theme--light material-icons">arrow_drop_down</i>
                                    </div>
                                </div>
                            </div>
                        </div>
                    </div>
                </div>
                <div class="v-text-field__details">
                    <div class="v-messages theme--light">
                        <div class="v-messages__wrapper"></div>
                    </div>
                </div>
            </div>
        </div>
    </div>
    <button type="button" class="v-btn primary" id="btn-search">
        <div class="v-btn__content">
            Search
        </div>
    </button>
</div>
`;

exports[`<Search />  primary input contains a non-empty string 1`] = `
<div id="search-container">
    <div id="left-input-container" class="search-container">
        <div class="v-input v-text-field v-select v-autocomplete v-input--is-label-active v-input--is-dirty">
            <div class="v-input__prepend-outer">
                <div class="v-input__icon v-input__icon--prepend">
                    <i aria-hidden="true" class="v-icon material-icons">search</i>
                </div>
            </div>
            <div class="v-input__control">
                <div class="v-input__slot">
                    <div class="v-menu v-menu--inline">
                        <div class="v-menu__activator">
                            <div class="v-select__slot">
                                <input id="input-primary" type="text" placeholder="I'm looking for ..." autocomplete="off" role="combobox">
                                <div class="v-input__append-inner">
                                    <div class="v-input__icon v-input__icon--append">
                                        <i aria-hidden="true" class="v-icon material-icons">arrow_drop_down</i>
                                    </div>
                                </div>
                            </div>
                        </div>
                        <div class="v-menu__content v-autocomplete__content" style="max-height: 300px; min-width: 0px; max-width: auto; top: 12px; left: 0px; z-index: 0; display: none;">
                            <div class="v-select-list v-card">
                                <div class="v-list">
                                    <div>
                                        <div class="v-list__tile">
                                            <div class="v-list__tile__content">
                                                <div class="v-list__tile__title">No data available</div>
                                            </div>
                                        </div>
                                    </div>
                                </div>
                            </div>
                        </div>
                    </div>
                </div>
                <div class="v-text-field__details">
                    <div class="v-messages">
                        <div class="v-messages__wrapper"></div>
                    </div>
                </div>
            </div>
        </div>
    </div>
    <div id="right-input-container" class="search-location-container">
        <div class="v-input v-text-field v-select v-autocomplete">
            <div class="v-input__prepend-outer">
                <div class="v-input__icon v-input__icon--prepend">
                    <i aria-hidden="true" class="v-icon material-icons">room</i>
                </div>
            </div>
            <div class="v-input__control">
                <div class="v-input__slot">
                    <div class="v-menu v-menu--inline">
                        <div class="v-menu__activator">
                            <div class="v-select__slot">
                                <input id="input-secondary" type="text" placeholder="Melbourne" autocomplete="off" role="combobox">
                                <div class="v-input__append-inner">
                                    <div class="v-input__icon v-input__icon--append">
                                        <i aria-hidden="true" class="v-icon material-icons">arrow_drop_down</i>
                                    </div>
                                </div>
                            </div>
                        </div>
                        <div class="v-menu__content v-autocomplete__content" style="max-height: 300px; min-width: 0px; max-width: auto; top: 12px; left: 0px; z-index: 0; display: none;">
                            <div class="v-select-list v-card">
                                <div class="v-list">
                                    <div>
                                        <div class="v-list__tile">
                                            <div class="v-list__tile__content">
                                                <div class="v-list__tile__title">No data available</div>
                                            </div>
                                        </div>
                                    </div>
                                </div>
                            </div>
                        </div>
                    </div>
                </div>
                <div class="v-text-field__details">
                    <div class="v-messages">
                        <div class="v-messages__wrapper"></div>
                    </div>
                </div>
            </div>
        </div>
    </div>
    <button type="button" class="v-btn primary" id="btn-search">
        <div class="v-btn__content">
            Search
        </div>
    </button>
</div>
`;

exports[`<Search />  primary input contains an empty string 1`] = `
<div id="search-container">
    <div id="left-input-container" class="search-container">
        <div class="v-input v-text-field v-select v-autocomplete theme--light">
            <div class="v-input__prepend-outer">
                <div class="v-input__icon v-input__icon--prepend">
                    <i aria-hidden="true" class="v-icon theme--light material-icons">search</i>
                </div>
            </div>
            <div class="v-input__control">
                <div class="v-input__slot">
                    <div class="v-menu v-menu--inline">
                        <div class="v-menu__activator">
                            <div class="v-select__slot">
                                <label for="input-primary" class="v-label theme--light" style="left: 0px; position: absolute;">I'm looking for ...</label>
                                <input id="input-primary" type="text" autocomplete="off" role="combobox">
                                <div class="v-input__append-inner">
                                    <div class="v-input__icon v-input__icon--append">
                                        <i aria-hidden="true" class="v-icon theme--light material-icons">arrow_drop_down</i>
                                    </div>
                                </div>
                            </div>
                        </div>
                    </div>
                </div>
                <div class="v-text-field__details">
                    <div class="v-messages theme--light">
                        <div class="v-messages__wrapper"></div>
                    </div>
                </div>
            </div>
        </div>
    </div>
    <div id="right-input-container" class="search-location-container">
        <div class="v-input v-text-field v-select v-autocomplete theme--light">
            <div class="v-input__prepend-outer">
                <div class="v-input__icon v-input__icon--prepend">
                    <i aria-hidden="true" class="v-icon theme--light material-icons">room</i>
                </div>
            </div>
            <div class="v-input__control">
                <div class="v-input__slot">
                    <div class="v-menu v-menu--inline">
                        <div class="v-menu__activator">
                            <div class="v-select__slot">
                                <label for="input-secondary" class="v-label theme--light" style="left: 0px; position: absolute;">Location</label>
                                <input id="input-secondary" type="text" autocomplete="off" role="combobox">
                                <div class="v-input__append-inner">
                                    <div class="v-input__icon v-input__icon--append">
                                        <i aria-hidden="true" class="v-icon theme--light material-icons">arrow_drop_down</i>
                                    </div>
                                </div>
                            </div>
                        </div>
                    </div>
                </div>
                <div class="v-text-field__details">
                    <div class="v-messages theme--light">
                        <div class="v-messages__wrapper"></div>
                    </div>
                </div>
            </div>
        </div>
    </div>
    <button type="button" class="v-btn primary" id="btn-search">
        <div class="v-btn__content">
            Search
        </div>
    </button>
</div>
`;
