// Jest Snapshot v1, https://goo.gl/fbAQLP

exports[`<SearchResultPage.vue /> matches snapshot 1`] = `
<div class="resultpage-container">
    <div id="search" class="gray">
        <br>
        <div class="resultpage-search">
            <search-stub></search-stub>
        </div>
    </div>
    <div id="resultContainer" class="filter-result-container">
        <div id="filters" class="left-filter">
            <ul>
                <filterlink-stub node="[object Object]"></filterlink-stub>
            </ul>
        </div>
        <div id="results" class="light result-container">
            <div class="right-result">
                <h1>Found 666 results</h1>
                <contractorcardlist-stub></contractorcardlist-stub>
            </div>
        </div>
    </div>
</div>
`;
