// Jest Snapshot v1, https://goo.gl/fbAQLP

exports[`<ValueProposition.vue />  matches snapshot 1`] = `
<div>
    <div class="topProposition">
        <coretext-stub h1="">More than 1 Million Contractors</coretext-stub>
    </div>
    <div class="nextProposition">
        <coretext-stub h3="">iPro connect empowers businesses to build safe, compliant and trusted partnerships.
        </coretext-stub>
    </div>
</div>
`;
