// Jest Snapshot v1, https://goo.gl/fbAQLP

exports[`<Contractors /> matches snapshot 1`] = `
<div class="contractor-container">
    <v-container-stub tag="div" fill-height="">
        <v-layout-stub tag="div" align-center="" row="" wrap="">
            <v-flex-stub tag="div">
                <h1 class="text-sm-left">Contractors</h1>
                <br>
                <v-btn-stub activeclass="v-btn--active" outline="true" ripple="true" round="true" tag="button" type="button" id="btn-health-care" color="primary" to="/results/Health Care" class="contractor-button">
                    Health Care
                </v-btn-stub>
                <v-btn-stub activeclass="v-btn--active" outline="true" ripple="true" round="true" tag="button" type="button" id="btn-retail" color="primary" to="/results/Retail" class="contractor-button">
                    Retail
                </v-btn-stub>
                <v-btn-stub activeclass="v-btn--active" outline="true" ripple="true" round="true" tag="button" type="button" id="btn-logistics" color="primary" to="/results/Logistics" class="contractor-button">
                    Logistics
                </v-btn-stub>
                <v-btn-stub activeclass="v-btn--active" outline="true" ripple="true" round="true" tag="button" type="button" id="btn-engineering" color="primary" to="/results/Engineering" class="contractor-button">
                    Engineering
                </v-btn-stub>
                <v-btn-stub activeclass="v-btn--active" outline="true" ripple="true" round="true" tag="button" type="button" id="btn-real-estate" color="primary" to="/results/Real Estate" class="contractor-button">
                    Real Estate
                </v-btn-stub>
            </v-flex-stub>
        </v-layout-stub>
    </v-container-stub>
</div>
`;
