// Jest Snapshot v1, https://goo.gl/fbAQLP

exports[`HomePage renders 1`] = `
<div class="home-container">
    <div class="home-list-container">
        <div id="search" class="search">
            <br>
            <br>
            <br>
            <br>
            <valueproposition-stub></valueproposition-stub>
            <br>
            <br>
            <search-stub></search-stub>
        </div>
        <contractors-stub></contractors-stub>
        <clients-stub></clients-stub>
    </div>
</div>
`;
